digraph "ast/all.h"
{
  edge [fontname="Helvetica",fontsize="10",labelfontname="Helvetica",labelfontsize="10"];
  node [fontname="Helvetica",fontsize="10",shape=record];
  Node1 [label="ast/all.h",height=0.2,width=0.4,color="black", fillcolor="grey75", style="filled", fontcolor="black"];
  Node1 -> Node2 [color="midnightblue",fontsize="10",style="solid",fontname="Helvetica"];
  Node2 [label="cdk/ast/basic_node.h",height=0.2,width=0.4,color="grey75", fillcolor="white", style="filled"];
  Node1 -> Node3 [color="midnightblue",fontsize="10",style="solid",fontname="Helvetica"];
  Node3 [label="cdk/ast/data_node.h",height=0.2,width=0.4,color="grey75", fillcolor="white", style="filled"];
  Node1 -> Node4 [color="midnightblue",fontsize="10",style="solid",fontname="Helvetica"];
  Node4 [label="cdk/ast/nil_node.h",height=0.2,width=0.4,color="grey75", fillcolor="white", style="filled"];
  Node1 -> Node5 [color="midnightblue",fontsize="10",style="solid",fontname="Helvetica"];
  Node5 [label="cdk/ast/composite_node.h",height=0.2,width=0.4,color="grey75", fillcolor="white", style="filled"];
  Node1 -> Node6 [color="midnightblue",fontsize="10",style="solid",fontname="Helvetica"];
  Node6 [label="cdk/ast/sequence_node.h",height=0.2,width=0.4,color="grey75", fillcolor="white", style="filled"];
  Node1 -> Node7 [color="midnightblue",fontsize="10",style="solid",fontname="Helvetica"];
  Node7 [label="cdk/ast/integer_node.h",height=0.2,width=0.4,color="grey75", fillcolor="white", style="filled"];
  Node1 -> Node8 [color="midnightblue",fontsize="10",style="solid",fontname="Helvetica"];
  Node8 [label="cdk/ast/double_node.h",height=0.2,width=0.4,color="grey75", fillcolor="white", style="filled"];
  Node1 -> Node9 [color="midnightblue",fontsize="10",style="solid",fontname="Helvetica"];
  Node9 [label="cdk/ast/string_node.h",height=0.2,width=0.4,color="grey75", fillcolor="white", style="filled"];
  Node1 -> Node10 [color="midnightblue",fontsize="10",style="solid",fontname="Helvetica"];
  Node10 [label="cdk/ast/identifier\l_node.h",height=0.2,width=0.4,color="grey75", fillcolor="white", style="filled"];
  Node1 -> Node11 [color="midnightblue",fontsize="10",style="solid",fontname="Helvetica"];
  Node11 [label="cdk/ast/neg_node.h",height=0.2,width=0.4,color="grey75", fillcolor="white", style="filled"];
  Node1 -> Node12 [color="midnightblue",fontsize="10",style="solid",fontname="Helvetica"];
  Node12 [label="cdk/ast/add_node.h",height=0.2,width=0.4,color="grey75", fillcolor="white", style="filled"];
  Node1 -> Node13 [color="midnightblue",fontsize="10",style="solid",fontname="Helvetica"];
  Node13 [label="cdk/ast/sub_node.h",height=0.2,width=0.4,color="grey75", fillcolor="white", style="filled"];
  Node1 -> Node14 [color="midnightblue",fontsize="10",style="solid",fontname="Helvetica"];
  Node14 [label="cdk/ast/mul_node.h",height=0.2,width=0.4,color="grey75", fillcolor="white", style="filled"];
  Node1 -> Node15 [color="midnightblue",fontsize="10",style="solid",fontname="Helvetica"];
  Node15 [label="cdk/ast/div_node.h",height=0.2,width=0.4,color="grey75", fillcolor="white", style="filled"];
  Node1 -> Node16 [color="midnightblue",fontsize="10",style="solid",fontname="Helvetica"];
  Node16 [label="cdk/ast/mod_node.h",height=0.2,width=0.4,color="grey75", fillcolor="white", style="filled"];
  Node1 -> Node17 [color="midnightblue",fontsize="10",style="solid",fontname="Helvetica"];
  Node17 [label="cdk/ast/lt_node.h",height=0.2,width=0.4,color="grey75", fillcolor="white", style="filled"];
  Node1 -> Node18 [color="midnightblue",fontsize="10",style="solid",fontname="Helvetica"];
  Node18 [label="cdk/ast/gt_node.h",height=0.2,width=0.4,color="grey75", fillcolor="white", style="filled"];
  Node1 -> Node19 [color="midnightblue",fontsize="10",style="solid",fontname="Helvetica"];
  Node19 [label="cdk/ast/ge_node.h",height=0.2,width=0.4,color="grey75", fillcolor="white", style="filled"];
  Node1 -> Node20 [color="midnightblue",fontsize="10",style="solid",fontname="Helvetica"];
  Node20 [label="cdk/ast/le_node.h",height=0.2,width=0.4,color="grey75", fillcolor="white", style="filled"];
  Node1 -> Node21 [color="midnightblue",fontsize="10",style="solid",fontname="Helvetica"];
  Node21 [label="cdk/ast/ne_node.h",height=0.2,width=0.4,color="grey75", fillcolor="white", style="filled"];
  Node1 -> Node22 [color="midnightblue",fontsize="10",style="solid",fontname="Helvetica"];
  Node22 [label="cdk/ast/eq_node.h",height=0.2,width=0.4,color="grey75", fillcolor="white", style="filled"];
  Node1 -> Node23 [color="midnightblue",fontsize="10",style="solid",fontname="Helvetica"];
  Node23 [label="ast/while_node.h",height=0.2,width=0.4,color="black", fillcolor="white", style="filled",URL="$while__node_8h.html"];
  Node23 -> Node24 [color="midnightblue",fontsize="10",style="solid",fontname="Helvetica"];
  Node24 [label="cdk/ast/expression\l_node.h",height=0.2,width=0.4,color="grey75", fillcolor="white", style="filled"];
  Node1 -> Node25 [color="midnightblue",fontsize="10",style="solid",fontname="Helvetica"];
  Node25 [label="ast/program_node.h",height=0.2,width=0.4,color="black", fillcolor="white", style="filled",URL="$program__node_8h.html"];
  Node25 -> Node2 [color="midnightblue",fontsize="10",style="solid",fontname="Helvetica"];
  Node1 -> Node26 [color="midnightblue",fontsize="10",style="solid",fontname="Helvetica"];
  Node26 [label="ast/assignment_node.h",height=0.2,width=0.4,color="black", fillcolor="white", style="filled",URL="$assignment__node_8h.html"];
  Node26 -> Node27 [color="midnightblue",fontsize="10",style="solid",fontname="Helvetica"];
  Node27 [label="ast/lvalue_node.h",height=0.2,width=0.4,color="black", fillcolor="white", style="filled",URL="$lvalue__node_8h.html"];
  Node27 -> Node28 [color="midnightblue",fontsize="10",style="solid",fontname="Helvetica"];
  Node28 [label="cdk/ast/simple_value\l_node.h",height=0.2,width=0.4,color="grey75", fillcolor="white", style="filled"];
  Node27 -> Node29 [color="midnightblue",fontsize="10",style="solid",fontname="Helvetica"];
  Node29 [label="string",height=0.2,width=0.4,color="grey75", fillcolor="white", style="filled"];
  Node1 -> Node30 [color="midnightblue",fontsize="10",style="solid",fontname="Helvetica"];
  Node30 [label="ast/print_node.h",height=0.2,width=0.4,color="black", fillcolor="white", style="filled",URL="$print__node_8h.html"];
  Node30 -> Node24 [color="midnightblue",fontsize="10",style="solid",fontname="Helvetica"];
  Node1 -> Node27 [color="midnightblue",fontsize="10",style="solid",fontname="Helvetica"];
  Node1 -> Node31 [color="midnightblue",fontsize="10",style="solid",fontname="Helvetica"];
  Node31 [label="ast/rvalue_node.h",height=0.2,width=0.4,color="black", fillcolor="white", style="filled",URL="$rvalue__node_8h.html"];
  Node31 -> Node24 [color="midnightblue",fontsize="10",style="solid",fontname="Helvetica"];
  Node1 -> Node32 [color="midnightblue",fontsize="10",style="solid",fontname="Helvetica"];
  Node32 [label="ast/read_node.h",height=0.2,width=0.4,color="black", fillcolor="white", style="filled",URL="$read__node_8h.html"];
  Node32 -> Node27 [color="midnightblue",fontsize="10",style="solid",fontname="Helvetica"];
  Node1 -> Node33 [color="midnightblue",fontsize="10",style="solid",fontname="Helvetica"];
  Node33 [label="ast/evaluation_node.h",height=0.2,width=0.4,color="black", fillcolor="white", style="filled",URL="$evaluation__node_8h.html"];
  Node33 -> Node24 [color="midnightblue",fontsize="10",style="solid",fontname="Helvetica"];
  Node1 -> Node34 [color="midnightblue",fontsize="10",style="solid",fontname="Helvetica"];
  Node34 [label="ast/if_else_node.h",height=0.2,width=0.4,color="black", fillcolor="white", style="filled",URL="$if__else__node_8h.html"];
  Node34 -> Node24 [color="midnightblue",fontsize="10",style="solid",fontname="Helvetica"];
  Node1 -> Node35 [color="midnightblue",fontsize="10",style="solid",fontname="Helvetica"];
  Node35 [label="ast/if_node.h",height=0.2,width=0.4,color="black", fillcolor="white", style="filled",URL="$if__node_8h.html"];
  Node35 -> Node24 [color="midnightblue",fontsize="10",style="solid",fontname="Helvetica"];
}
