digraph "simple::xml_writer::processSimple"
{
  edge [fontname="Helvetica",fontsize="10",labelfontname="Helvetica",labelfontsize="10"];
  node [fontname="Helvetica",fontsize="10",shape=record];
  rankdir="LR";
  Node1 [label="simple::xml_writer\l::processSimple",height=0.2,width=0.4,color="black", fillcolor="grey75", style="filled", fontcolor="black"];
  Node1 -> Node2 [color="midnightblue",fontsize="10",style="solid",fontname="Helvetica"];
  Node2 [label="simple::xml_writer\l::do_add_node",height=0.2,width=0.4,color="black", fillcolor="white", style="filled",URL="$classsimple_1_1xml__writer.html#a6aceb25baa684e1c61bd9403ae7174cb"];
  Node2 -> Node3 [color="midnightblue",fontsize="10",style="solid",fontname="Helvetica"];
  Node3 [label="simple::xml_writer\l::processBinaryExpression",height=0.2,width=0.4,color="black", fillcolor="white", style="filled",URL="$classsimple_1_1xml__writer.html#ab1a45898b9e6f477febebaf6d3f814a2"];
  Node3 -> Node4 [color="midnightblue",fontsize="10",style="solid",fontname="Helvetica"];
  Node4 [label="simple::xml_writer\l::closeTag",height=0.2,width=0.4,color="black", fillcolor="white", style="filled",URL="$classsimple_1_1xml__writer.html#a661cd7c508b612a8789ed66e23ad8ff8"];
  Node4 -> Node5 [color="midnightblue",fontsize="10",style="solid",fontname="Helvetica"];
  Node5 [label="basic_ast_visitor::os",height=0.2,width=0.4,color="black", fillcolor="white", style="filled",URL="$classbasic__ast__visitor.html#ab81ab147fe687470c3e8f9ebfd2ca6f9"];
  Node3 -> Node6 [color="midnightblue",fontsize="10",style="solid",fontname="Helvetica"];
  Node6 [label="simple::xml_writer\l::openTag",height=0.2,width=0.4,color="black", fillcolor="white", style="filled",URL="$classsimple_1_1xml__writer.html#a7f674d53fc10d9ecfc9a6369d5a65d6d"];
  Node6 -> Node5 [color="midnightblue",fontsize="10",style="solid",fontname="Helvetica"];
  Node1 -> Node7 [color="midnightblue",fontsize="10",style="solid",fontname="Helvetica"];
  Node7 [label="simple::xml_writer\l::do_assignment_node",height=0.2,width=0.4,color="black", fillcolor="white", style="filled",URL="$classsimple_1_1xml__writer.html#a7072bcbdb97a010fc2d98cf1914b9179"];
  Node7 -> Node8 [color="midnightblue",fontsize="10",style="solid",fontname="Helvetica"];
  Node8 [label="simple::lvalue_node\l::accept",height=0.2,width=0.4,color="black", fillcolor="white", style="filled",URL="$classsimple_1_1lvalue__node.html#a3b7448f6fb9feb2269abaece29931b75"];
  Node8 -> Node9 [color="midnightblue",fontsize="10",style="solid",fontname="Helvetica"];
  Node9 [label="basic_ast_visitor::\ldo_lvalue_node",height=0.2,width=0.4,color="black", fillcolor="white", style="filled",URL="$classbasic__ast__visitor.html#ad75c60b05a05b69760a1e0e19f5f0e75"];
  Node7 -> Node4 [color="midnightblue",fontsize="10",style="solid",fontname="Helvetica"];
  Node7 -> Node10 [color="midnightblue",fontsize="10",style="solid",fontname="Helvetica"];
  Node10 [label="simple::assignment\l_node::lvalue",height=0.2,width=0.4,color="black", fillcolor="white", style="filled",URL="$classsimple_1_1assignment__node.html#a252caa7668723625ab405acbe229269c"];
  Node7 -> Node6 [color="midnightblue",fontsize="10",style="solid",fontname="Helvetica"];
  Node7 -> Node11 [color="midnightblue",fontsize="10",style="solid",fontname="Helvetica"];
  Node11 [label="simple::assignment\l_node::rvalue",height=0.2,width=0.4,color="black", fillcolor="white", style="filled",URL="$classsimple_1_1assignment__node.html#a8b9c8ee6f5e1cf3e741b1fc93bbcd714"];
  Node1 -> Node12 [color="midnightblue",fontsize="10",style="solid",fontname="Helvetica"];
  Node12 [label="simple::xml_writer\l::do_div_node",height=0.2,width=0.4,color="black", fillcolor="white", style="filled",URL="$classsimple_1_1xml__writer.html#aef13727e5b07ba4ee3eae91b542aa29f"];
  Node12 -> Node3 [color="midnightblue",fontsize="10",style="solid",fontname="Helvetica"];
  Node1 -> Node13 [color="midnightblue",fontsize="10",style="solid",fontname="Helvetica"];
  Node13 [label="simple::xml_writer\l::do_eq_node",height=0.2,width=0.4,color="black", fillcolor="white", style="filled",URL="$classsimple_1_1xml__writer.html#a05e2a93c03d7d8ba285fa4bcc7f2cb4b"];
  Node13 -> Node3 [color="midnightblue",fontsize="10",style="solid",fontname="Helvetica"];
  Node1 -> Node14 [color="midnightblue",fontsize="10",style="solid",fontname="Helvetica"];
  Node14 [label="simple::xml_writer\l::do_evaluation_node",height=0.2,width=0.4,color="black", fillcolor="white", style="filled",URL="$classsimple_1_1xml__writer.html#af66a2f90a9f0e8f62e48170f61ac843f"];
  Node14 -> Node15 [color="midnightblue",fontsize="10",style="solid",fontname="Helvetica"];
  Node15 [label="simple::evaluation\l_node::argument",height=0.2,width=0.4,color="black", fillcolor="white", style="filled",URL="$classsimple_1_1evaluation__node.html#aca8880de7c9a29f7928798493a6f9dbd"];
  Node14 -> Node4 [color="midnightblue",fontsize="10",style="solid",fontname="Helvetica"];
  Node14 -> Node6 [color="midnightblue",fontsize="10",style="solid",fontname="Helvetica"];
  Node1 -> Node16 [color="midnightblue",fontsize="10",style="solid",fontname="Helvetica"];
  Node16 [label="simple::xml_writer\l::do_ge_node",height=0.2,width=0.4,color="black", fillcolor="white", style="filled",URL="$classsimple_1_1xml__writer.html#ac0f8076afccc0c8faa464f4cace32485"];
  Node16 -> Node3 [color="midnightblue",fontsize="10",style="solid",fontname="Helvetica"];
  Node1 -> Node17 [color="midnightblue",fontsize="10",style="solid",fontname="Helvetica"];
  Node17 [label="simple::xml_writer\l::do_gt_node",height=0.2,width=0.4,color="black", fillcolor="white", style="filled",URL="$classsimple_1_1xml__writer.html#a380f37600be5c8fc4160a8bc3f559303"];
  Node17 -> Node3 [color="midnightblue",fontsize="10",style="solid",fontname="Helvetica"];
  Node1 -> Node18 [color="midnightblue",fontsize="10",style="solid",fontname="Helvetica"];
  Node18 [label="simple::xml_writer\l::do_if_else_node",height=0.2,width=0.4,color="black", fillcolor="white", style="filled",URL="$classsimple_1_1xml__writer.html#adbebad39482e82c64601883bf121360a"];
  Node18 -> Node4 [color="midnightblue",fontsize="10",style="solid",fontname="Helvetica"];
  Node18 -> Node19 [color="midnightblue",fontsize="10",style="solid",fontname="Helvetica"];
  Node19 [label="simple::if_else_node\l::condition",height=0.2,width=0.4,color="black", fillcolor="white", style="filled",URL="$classsimple_1_1if__else__node.html#a0079e9c582acbe4575734ec7341b7977"];
  Node18 -> Node20 [color="midnightblue",fontsize="10",style="solid",fontname="Helvetica"];
  Node20 [label="simple::if_else_node\l::elseblock",height=0.2,width=0.4,color="black", fillcolor="white", style="filled",URL="$classsimple_1_1if__else__node.html#a51c14ec9c3d19e5e45a8bdeaa999df72"];
  Node18 -> Node6 [color="midnightblue",fontsize="10",style="solid",fontname="Helvetica"];
  Node18 -> Node21 [color="midnightblue",fontsize="10",style="solid",fontname="Helvetica"];
  Node21 [label="simple::if_else_node\l::thenblock",height=0.2,width=0.4,color="black", fillcolor="white", style="filled",URL="$classsimple_1_1if__else__node.html#a5f440f43ff524610b4ad6a576fd1a18a"];
  Node1 -> Node22 [color="midnightblue",fontsize="10",style="solid",fontname="Helvetica"];
  Node22 [label="simple::xml_writer\l::do_if_node",height=0.2,width=0.4,color="black", fillcolor="white", style="filled",URL="$classsimple_1_1xml__writer.html#a3158accf64643d4561e1ed899b10be36"];
  Node22 -> Node23 [color="midnightblue",fontsize="10",style="solid",fontname="Helvetica"];
  Node23 [label="simple::if_node::block",height=0.2,width=0.4,color="black", fillcolor="white", style="filled",URL="$classsimple_1_1if__node.html#a3cd028c32ea507f915d1f849ae78a83d"];
  Node22 -> Node4 [color="midnightblue",fontsize="10",style="solid",fontname="Helvetica"];
  Node22 -> Node24 [color="midnightblue",fontsize="10",style="solid",fontname="Helvetica"];
  Node24 [label="simple::if_node::condition",height=0.2,width=0.4,color="black", fillcolor="white", style="filled",URL="$classsimple_1_1if__node.html#afd0ccdc308d0b95067596d2b2e866497"];
  Node22 -> Node6 [color="midnightblue",fontsize="10",style="solid",fontname="Helvetica"];
  Node1 -> Node25 [color="midnightblue",fontsize="10",style="solid",fontname="Helvetica"];
  Node25 [label="simple::xml_writer\l::do_integer_node",height=0.2,width=0.4,color="black", fillcolor="white", style="filled",URL="$classsimple_1_1xml__writer.html#ad950346d3708711f8a2715431ef320af"];
  Node25 -> Node1 [color="midnightblue",fontsize="10",style="solid",fontname="Helvetica"];
  Node1 -> Node26 [color="midnightblue",fontsize="10",style="solid",fontname="Helvetica"];
  Node26 [label="simple::xml_writer\l::do_le_node",height=0.2,width=0.4,color="black", fillcolor="white", style="filled",URL="$classsimple_1_1xml__writer.html#ae1b77cd120ca01848aabef806b88a488"];
  Node26 -> Node3 [color="midnightblue",fontsize="10",style="solid",fontname="Helvetica"];
  Node1 -> Node27 [color="midnightblue",fontsize="10",style="solid",fontname="Helvetica"];
  Node27 [label="simple::xml_writer\l::do_lt_node",height=0.2,width=0.4,color="black", fillcolor="white", style="filled",URL="$classsimple_1_1xml__writer.html#a57601d8110bf661d68a2d6ae9b81e44a"];
  Node27 -> Node3 [color="midnightblue",fontsize="10",style="solid",fontname="Helvetica"];
  Node1 -> Node28 [color="midnightblue",fontsize="10",style="solid",fontname="Helvetica"];
  Node28 [label="simple::xml_writer\l::do_lvalue_node",height=0.2,width=0.4,color="black", fillcolor="white", style="filled",URL="$classsimple_1_1xml__writer.html#a1a04de819963c179824ab28145887af0"];
  Node28 -> Node1 [color="midnightblue",fontsize="10",style="solid",fontname="Helvetica"];
  Node1 -> Node29 [color="midnightblue",fontsize="10",style="solid",fontname="Helvetica"];
  Node29 [label="simple::xml_writer\l::do_mod_node",height=0.2,width=0.4,color="black", fillcolor="white", style="filled",URL="$classsimple_1_1xml__writer.html#abce5b86e3f029e6bab94867931d11462"];
  Node29 -> Node3 [color="midnightblue",fontsize="10",style="solid",fontname="Helvetica"];
  Node1 -> Node30 [color="midnightblue",fontsize="10",style="solid",fontname="Helvetica"];
  Node30 [label="simple::xml_writer\l::do_mul_node",height=0.2,width=0.4,color="black", fillcolor="white", style="filled",URL="$classsimple_1_1xml__writer.html#ade82539b4888b6e23fd84f8214b59f62"];
  Node30 -> Node3 [color="midnightblue",fontsize="10",style="solid",fontname="Helvetica"];
  Node1 -> Node31 [color="midnightblue",fontsize="10",style="solid",fontname="Helvetica"];
  Node31 [label="simple::xml_writer\l::do_ne_node",height=0.2,width=0.4,color="black", fillcolor="white", style="filled",URL="$classsimple_1_1xml__writer.html#affc2cfae204e0a65087561d93f95c979"];
  Node31 -> Node3 [color="midnightblue",fontsize="10",style="solid",fontname="Helvetica"];
  Node1 -> Node32 [color="midnightblue",fontsize="10",style="solid",fontname="Helvetica"];
  Node32 [label="simple::xml_writer\l::do_neg_node",height=0.2,width=0.4,color="black", fillcolor="white", style="filled",URL="$classsimple_1_1xml__writer.html#aa3cca68b56f771d888391940d64694c9"];
  Node32 -> Node33 [color="midnightblue",fontsize="10",style="solid",fontname="Helvetica"];
  Node33 [label="simple::xml_writer\l::processUnaryExpression",height=0.2,width=0.4,color="black", fillcolor="white", style="filled",URL="$classsimple_1_1xml__writer.html#a3a032a23a6c757cb40144ff436de924e"];
  Node33 -> Node6 [color="midnightblue",fontsize="10",style="solid",fontname="Helvetica"];
  Node33 -> Node4 [color="midnightblue",fontsize="10",style="solid",fontname="Helvetica"];
  Node1 -> Node34 [color="midnightblue",fontsize="10",style="solid",fontname="Helvetica"];
  Node34 [label="simple::xml_writer\l::do_print_node",height=0.2,width=0.4,color="black", fillcolor="white", style="filled",URL="$classsimple_1_1xml__writer.html#abb203e58e16c05bd5ee899adfa54b3e6"];
  Node34 -> Node35 [color="midnightblue",fontsize="10",style="solid",fontname="Helvetica"];
  Node35 [label="simple::print_node\l::argument",height=0.2,width=0.4,color="black", fillcolor="white", style="filled",URL="$classsimple_1_1print__node.html#aeb4e81e2fefe12a78203ec6221f9751b"];
  Node34 -> Node4 [color="midnightblue",fontsize="10",style="solid",fontname="Helvetica"];
  Node34 -> Node6 [color="midnightblue",fontsize="10",style="solid",fontname="Helvetica"];
  Node1 -> Node36 [color="midnightblue",fontsize="10",style="solid",fontname="Helvetica"];
  Node36 [label="simple::xml_writer\l::do_program_node",height=0.2,width=0.4,color="black", fillcolor="white", style="filled",URL="$classsimple_1_1xml__writer.html#ad4825fcd8c9e2cfb44cc17a020598d09"];
  Node36 -> Node4 [color="midnightblue",fontsize="10",style="solid",fontname="Helvetica"];
  Node36 -> Node6 [color="midnightblue",fontsize="10",style="solid",fontname="Helvetica"];
  Node36 -> Node37 [color="midnightblue",fontsize="10",style="solid",fontname="Helvetica"];
  Node37 [label="simple::program_node\l::statements",height=0.2,width=0.4,color="black", fillcolor="white", style="filled",URL="$classsimple_1_1program__node.html#a45e3487f0bd4ce8892f4a5b04273fa90"];
  Node1 -> Node38 [color="midnightblue",fontsize="10",style="solid",fontname="Helvetica"];
  Node38 [label="simple::xml_writer\l::do_read_node",height=0.2,width=0.4,color="black", fillcolor="white", style="filled",URL="$classsimple_1_1xml__writer.html#a22211a5b3bd5dbd960c453e0783a3ca0"];
  Node38 -> Node8 [color="midnightblue",fontsize="10",style="solid",fontname="Helvetica"];
  Node38 -> Node39 [color="midnightblue",fontsize="10",style="solid",fontname="Helvetica"];
  Node39 [label="simple::read_node::\largument",height=0.2,width=0.4,color="black", fillcolor="white", style="filled",URL="$classsimple_1_1read__node.html#aa17e7eef42509f6f9de618cab92c1897"];
  Node38 -> Node4 [color="midnightblue",fontsize="10",style="solid",fontname="Helvetica"];
  Node38 -> Node6 [color="midnightblue",fontsize="10",style="solid",fontname="Helvetica"];
  Node1 -> Node40 [color="midnightblue",fontsize="10",style="solid",fontname="Helvetica"];
  Node40 [label="simple::xml_writer\l::do_rvalue_node",height=0.2,width=0.4,color="black", fillcolor="white", style="filled",URL="$classsimple_1_1xml__writer.html#a4303ac94d573d095a95d03d029bf6e02"];
  Node40 -> Node4 [color="midnightblue",fontsize="10",style="solid",fontname="Helvetica"];
  Node40 -> Node41 [color="midnightblue",fontsize="10",style="solid",fontname="Helvetica"];
  Node41 [label="simple::rvalue_node\l::lvalue",height=0.2,width=0.4,color="black", fillcolor="white", style="filled",URL="$classsimple_1_1rvalue__node.html#aebfbbc9fb037dc1f8561781955adc6f5"];
  Node40 -> Node6 [color="midnightblue",fontsize="10",style="solid",fontname="Helvetica"];
  Node1 -> Node42 [color="midnightblue",fontsize="10",style="solid",fontname="Helvetica"];
  Node42 [label="simple::xml_writer\l::do_string_node",height=0.2,width=0.4,color="black", fillcolor="white", style="filled",URL="$classsimple_1_1xml__writer.html#a0aea5c8eaa96cc94b35a016bcd9eaef5"];
  Node42 -> Node1 [color="midnightblue",fontsize="10",style="solid",fontname="Helvetica"];
  Node1 -> Node43 [color="midnightblue",fontsize="10",style="solid",fontname="Helvetica"];
  Node43 [label="simple::xml_writer\l::do_sub_node",height=0.2,width=0.4,color="black", fillcolor="white", style="filled",URL="$classsimple_1_1xml__writer.html#a6ae5a00505ab712b1f5933df6d548d3e"];
  Node43 -> Node3 [color="midnightblue",fontsize="10",style="solid",fontname="Helvetica"];
  Node1 -> Node44 [color="midnightblue",fontsize="10",style="solid",fontname="Helvetica"];
  Node44 [label="simple::xml_writer\l::do_while_node",height=0.2,width=0.4,color="black", fillcolor="white", style="filled",URL="$classsimple_1_1xml__writer.html#a40e7dba10bdb68eb46a5d9a4c66480f9"];
  Node44 -> Node45 [color="midnightblue",fontsize="10",style="solid",fontname="Helvetica"];
  Node45 [label="simple::while_node\l::block",height=0.2,width=0.4,color="black", fillcolor="white", style="filled",URL="$classsimple_1_1while__node.html#aba79b46fee5df11ea5a7c11a7a1cc5ed"];
  Node44 -> Node4 [color="midnightblue",fontsize="10",style="solid",fontname="Helvetica"];
  Node44 -> Node46 [color="midnightblue",fontsize="10",style="solid",fontname="Helvetica"];
  Node46 [label="simple::while_node\l::condition",height=0.2,width=0.4,color="black", fillcolor="white", style="filled",URL="$classsimple_1_1while__node.html#a24f3b11ef8ecdc3bc82e9df7cbfd8729"];
  Node44 -> Node6 [color="midnightblue",fontsize="10",style="solid",fontname="Helvetica"];
  Node1 -> Node5 [color="midnightblue",fontsize="10",style="solid",fontname="Helvetica"];
  Node1 -> Node3 [color="midnightblue",fontsize="10",style="solid",fontname="Helvetica"];
  Node1 -> Node33 [color="midnightblue",fontsize="10",style="solid",fontname="Helvetica"];
}
