digraph "simple::postfix_writer::do_program_node"
{
  edge [fontname="Helvetica",fontsize="10",labelfontname="Helvetica",labelfontsize="10"];
  node [fontname="Helvetica",fontsize="10",shape=record];
  rankdir="LR";
  Node1 [label="simple::postfix_writer\l::do_program_node",height=0.2,width=0.4,color="black", fillcolor="grey75", style="filled", fontcolor="black"];
  Node1 -> Node2 [color="midnightblue",fontsize="10",style="solid",fontname="Helvetica"];
  Node2 [label="simple::program_node\l::statements",height=0.2,width=0.4,color="black", fillcolor="white", style="filled",URL="$classsimple_1_1program__node.html#a45e3487f0bd4ce8892f4a5b04273fa90"];
}
