digraph "simple::lvalue_node"
{
  edge [fontname="Helvetica",fontsize="10",labelfontname="Helvetica",labelfontsize="10"];
  node [fontname="Helvetica",fontsize="10",shape=record];
  Node1 [label="{simple::lvalue_node\n||+ lvalue_node()\l+ lvalue_node()\l+ lvalue_node()\l+ accept()\l}",height=0.2,width=0.4,color="black", fillcolor="grey75", style="filled", fontcolor="black"];
  Node2 -> Node1 [dir="back",color="midnightblue",fontsize="10",style="solid",arrowtail="onormal",fontname="Helvetica"];
  Node2 [label="{cdk::simple_value_node\l\< std::string \>\n||}",height=0.2,width=0.4,color="grey75", fillcolor="white", style="filled"];
}
