digraph "simple::interpreter::do_assignment_node"
{
  edge [fontname="Helvetica",fontsize="10",labelfontname="Helvetica",labelfontsize="10"];
  node [fontname="Helvetica",fontsize="10",shape=record];
  rankdir="LR";
  Node1 [label="simple::interpreter\l::do_assignment_node",height=0.2,width=0.4,color="black", fillcolor="grey75", style="filled", fontcolor="black"];
  Node1 -> Node2 [color="midnightblue",fontsize="10",style="solid",fontname="Helvetica"];
  Node2 [label="simple::assignment\l_node::lvalue",height=0.2,width=0.4,color="black", fillcolor="white", style="filled",URL="$classsimple_1_1assignment__node.html#a252caa7668723625ab405acbe229269c"];
  Node1 -> Node3 [color="midnightblue",fontsize="10",style="solid",fontname="Helvetica"];
  Node3 [label="simple::assignment\l_node::rvalue",height=0.2,width=0.4,color="black", fillcolor="white", style="filled",URL="$classsimple_1_1assignment__node.html#a8b9c8ee6f5e1cf3e741b1fc93bbcd714"];
}
