digraph "Graphical Class Hierarchy"
{
  edge [fontname="Helvetica",fontsize="10",labelfontname="Helvetica",labelfontsize="10"];
  node [fontname="Helvetica",fontsize="10",shape=record];
  rankdir="LR";
  Node1 [label="basic_target",height=0.2,width=0.4,color="grey75", fillcolor="white", style="filled"];
  Node1 -> Node2 [dir="back",color="midnightblue",fontsize="10",style="solid",fontname="Helvetica"];
  Node2 [label="simple::c_target",height=0.2,width=0.4,color="black", fillcolor="white", style="filled",URL="$classsimple_1_1c__target.html"];
  Node1 -> Node3 [dir="back",color="midnightblue",fontsize="10",style="solid",fontname="Helvetica"];
  Node3 [label="simple::english_target",height=0.2,width=0.4,color="black", fillcolor="white", style="filled",URL="$classsimple_1_1english__target.html"];
  Node1 -> Node4 [dir="back",color="midnightblue",fontsize="10",style="solid",fontname="Helvetica"];
  Node4 [label="simple::interpreter\l_target",height=0.2,width=0.4,color="black", fillcolor="white", style="filled",URL="$classsimple_1_1interpreter__target.html"];
  Node1 -> Node5 [dir="back",color="midnightblue",fontsize="10",style="solid",fontname="Helvetica"];
  Node5 [label="simple::postfix_target",height=0.2,width=0.4,color="black", fillcolor="white", style="filled",URL="$classsimple_1_1postfix__target.html"];
  Node1 -> Node6 [dir="back",color="midnightblue",fontsize="10",style="solid",fontname="Helvetica"];
  Node6 [label="simple::xml_target",height=0.2,width=0.4,color="black", fillcolor="white", style="filled",URL="$classsimple_1_1xml__target.html"];
}
