digraph "cdk::expression_node"
{
  edge [fontname="Helvetica",fontsize="10",labelfontname="Helvetica",labelfontsize="10"];
  node [fontname="Helvetica",fontsize="10",shape=record];
  Node1 [label="{cdk::expression_node\n|# _type\l|+ expression_node()\l+ type()\l+ type()\l}",height=0.2,width=0.4,color="black", fillcolor="grey75", style="filled", fontcolor="black"];
  Node2 -> Node1 [dir="back",color="midnightblue",fontsize="10",style="solid",arrowtail="onormal"];
  Node2 [label="{cdk::basic_node\n||+ ~basic_node()\l+ lineno()\l+ name()\l+ accept()\l# basic_node()\l}",height=0.2,width=0.4,color="black", fillcolor="white", style="filled",URL="$classcdk_1_1basic__node.html"];
  Node1 -> Node3 [dir="back",color="midnightblue",fontsize="10",style="solid",arrowtail="onormal"];
  Node3 [label="{cdk::binary_expression_node\n||+ binary_expression_node()\l+ left()\l+ right()\l}",height=0.2,width=0.4,color="black", fillcolor="white", style="filled",URL="$classcdk_1_1binary__expression__node.html"];
  Node3 -> Node4 [dir="back",color="midnightblue",fontsize="10",style="solid",arrowtail="onormal"];
  Node4 [label="{cdk::add_node\n||+ add_node()\l+ accept()\l}",height=0.2,width=0.4,color="black", fillcolor="white", style="filled",URL="$classcdk_1_1add__node.html"];
  Node3 -> Node5 [dir="back",color="midnightblue",fontsize="10",style="solid",arrowtail="onormal"];
  Node5 [label="{cdk::div_node\n||+ div_node()\l+ accept()\l}",height=0.2,width=0.4,color="black", fillcolor="white", style="filled",URL="$classcdk_1_1div__node.html"];
  Node3 -> Node6 [dir="back",color="midnightblue",fontsize="10",style="solid",arrowtail="onormal"];
  Node6 [label="{cdk::eq_node\n||+ eq_node()\l+ accept()\l}",height=0.2,width=0.4,color="black", fillcolor="white", style="filled",URL="$classcdk_1_1eq__node.html"];
  Node3 -> Node7 [dir="back",color="midnightblue",fontsize="10",style="solid",arrowtail="onormal"];
  Node7 [label="{cdk::ge_node\n||+ ge_node()\l+ accept()\l}",height=0.2,width=0.4,color="black", fillcolor="white", style="filled",URL="$classcdk_1_1ge__node.html"];
  Node3 -> Node8 [dir="back",color="midnightblue",fontsize="10",style="solid",arrowtail="onormal"];
  Node8 [label="{cdk::gt_node\n||+ gt_node()\l+ accept()\l}",height=0.2,width=0.4,color="black", fillcolor="white", style="filled",URL="$classcdk_1_1gt__node.html"];
  Node3 -> Node9 [dir="back",color="midnightblue",fontsize="10",style="solid",arrowtail="onormal"];
  Node9 [label="{cdk::le_node\n||+ le_node()\l+ accept()\l}",height=0.2,width=0.4,color="black", fillcolor="white", style="filled",URL="$classcdk_1_1le__node.html"];
  Node3 -> Node10 [dir="back",color="midnightblue",fontsize="10",style="solid",arrowtail="onormal"];
  Node10 [label="{cdk::lt_node\n||+ lt_node()\l+ accept()\l}",height=0.2,width=0.4,color="black", fillcolor="white", style="filled",URL="$classcdk_1_1lt__node.html"];
  Node3 -> Node11 [dir="back",color="midnightblue",fontsize="10",style="solid",arrowtail="onormal"];
  Node11 [label="{cdk::mod_node\n||+ mod_node()\l+ accept()\l}",height=0.2,width=0.4,color="black", fillcolor="white", style="filled",URL="$classcdk_1_1mod__node.html"];
  Node3 -> Node12 [dir="back",color="midnightblue",fontsize="10",style="solid",arrowtail="onormal"];
  Node12 [label="{cdk::mul_node\n||+ mul_node()\l+ accept()\l}",height=0.2,width=0.4,color="black", fillcolor="white", style="filled",URL="$classcdk_1_1mul__node.html"];
  Node3 -> Node13 [dir="back",color="midnightblue",fontsize="10",style="solid",arrowtail="onormal"];
  Node13 [label="{cdk::ne_node\n||+ ne_node()\l+ accept()\l}",height=0.2,width=0.4,color="black", fillcolor="white", style="filled",URL="$classcdk_1_1ne__node.html"];
  Node3 -> Node14 [dir="back",color="midnightblue",fontsize="10",style="solid",arrowtail="onormal"];
  Node14 [label="{cdk::sub_node\n||+ sub_node()\l+ accept()\l}",height=0.2,width=0.4,color="black", fillcolor="white", style="filled",URL="$classcdk_1_1sub__node.html"];
  Node1 -> Node15 [dir="back",color="midnightblue",fontsize="10",style="solid",arrowtail="onormal"];
  Node15 [label="{cdk::simple_value_node\l\< StoredType \>\n||+ value()\l# simple_value_node()\l}",height=0.2,width=0.4,color="black", fillcolor="white", style="filled",URL="$classcdk_1_1simple__value__node.html"];
  Node15 -> Node16 [dir="back",color="orange",fontsize="10",style="solid",label=" \< double \>" ];
  Node16 [label="{cdk::simple_value_node\l\< double \>\n||+ value()\l# simple_value_node()\l}",height=0.2,width=0.4,color="black", fillcolor="white", style="filled",URL="$classcdk_1_1simple__value__node.html"];
  Node16 -> Node17 [dir="back",color="midnightblue",fontsize="10",style="solid",arrowtail="onormal"];
  Node17 [label="{cdk::double_node\n||+ double_node()\l+ accept()\l}",height=0.2,width=0.4,color="black", fillcolor="white", style="filled",URL="$classcdk_1_1double__node.html"];
  Node15 -> Node18 [dir="back",color="orange",fontsize="10",style="solid",label=" \< std::string \>" ];
  Node18 [label="{cdk::simple_value_node\l\< std::string \>\n||+ value()\l# simple_value_node()\l}",height=0.2,width=0.4,color="black", fillcolor="white", style="filled",URL="$classcdk_1_1simple__value__node.html"];
  Node18 -> Node19 [dir="back",color="midnightblue",fontsize="10",style="solid",arrowtail="onormal"];
  Node19 [label="{cdk::identifier_node\n||+ identifier_node()\l+ identifier_node()\l+ identifier_node()\l+ accept()\l}",height=0.2,width=0.4,color="black", fillcolor="white", style="filled",URL="$classcdk_1_1identifier__node.html"];
  Node18 -> Node20 [dir="back",color="midnightblue",fontsize="10",style="solid",arrowtail="onormal"];
  Node20 [label="{cdk::string_node\n||+ string_node()\l+ string_node()\l+ string_node()\l+ accept()\l}",height=0.2,width=0.4,color="black", fillcolor="white", style="filled",URL="$classcdk_1_1string__node.html"];
  Node15 -> Node21 [dir="back",color="orange",fontsize="10",style="solid",label=" \< int \>" ];
  Node21 [label="{cdk::simple_value_node\l\< int \>\n||+ value()\l# simple_value_node()\l}",height=0.2,width=0.4,color="black", fillcolor="white", style="filled",URL="$classcdk_1_1simple__value__node.html"];
  Node21 -> Node22 [dir="back",color="midnightblue",fontsize="10",style="solid",arrowtail="onormal"];
  Node22 [label="{cdk::integer_node\n||+ integer_node()\l+ accept()\l}",height=0.2,width=0.4,color="black", fillcolor="white", style="filled",URL="$classcdk_1_1integer__node.html"];
  Node1 -> Node23 [dir="back",color="midnightblue",fontsize="10",style="solid",arrowtail="onormal"];
  Node23 [label="{cdk::unary_expression_node\n||+ unary_expression_node()\l+ argument()\l}",height=0.2,width=0.4,color="black", fillcolor="white", style="filled",URL="$classcdk_1_1unary__expression__node.html"];
  Node23 -> Node24 [dir="back",color="midnightblue",fontsize="10",style="solid",arrowtail="onormal"];
  Node24 [label="{cdk::neg_node\n||+ neg_node()\l+ accept()\l}",height=0.2,width=0.4,color="black", fillcolor="white", style="filled",URL="$classcdk_1_1neg__node.html"];
  Node1 -> Node16 [dir="back",color="midnightblue",fontsize="10",style="solid",arrowtail="onormal"];
  Node1 -> Node21 [dir="back",color="midnightblue",fontsize="10",style="solid",arrowtail="onormal"];
  Node1 -> Node18 [dir="back",color="midnightblue",fontsize="10",style="solid",arrowtail="onormal"];
}
