digraph "cdk::data_node"
{
  edge [fontname="Helvetica",fontsize="10",labelfontname="Helvetica",labelfontsize="10"];
  node [fontname="Helvetica",fontsize="10",shape=record];
  Node1 [label="{cdk::data_node\n||+ data_node()\l+ ~data_node()\l+ bucket()\l+ size()\l+ accept()\l}",height=0.2,width=0.4,color="black", fillcolor="grey75", style="filled", fontcolor="black"];
  Node2 -> Node1 [dir="back",color="midnightblue",fontsize="10",style="solid",arrowtail="onormal"];
  Node2 [label="{cdk::basic_node\n||+ ~basic_node()\l+ lineno()\l+ name()\l+ accept()\l# basic_node()\l}",height=0.2,width=0.4,color="black", fillcolor="white", style="filled",URL="$classcdk_1_1basic__node.html"];
}
