digraph "simple::interpreter_target"
{
  edge [fontname="Helvetica",fontsize="10",labelfontname="Helvetica",labelfontsize="10"];
  node [fontname="Helvetica",fontsize="10",shape=record];
  Node1 [label="{simple::interpreter\l_target\n||+ evaluate()\l- interpreter_target()\l}",height=0.2,width=0.4,color="black", fillcolor="grey75", style="filled", fontcolor="black"];
  Node2 -> Node1 [dir="back",color="midnightblue",fontsize="10",style="solid",arrowtail="onormal"];
  Node2 [label="{basic_target\n||}",height=0.2,width=0.4,color="grey75", fillcolor="white", style="filled"];
  Node1 -> Node1 [color="grey25",fontsize="10",style="solid",label=" -_self" ,arrowhead="odiamond"];
}
