digraph "simple::english_writer::do_ge_node"
{
  edge [fontname="Helvetica",fontsize="10",labelfontname="Helvetica",labelfontsize="10"];
  node [fontname="Helvetica",fontsize="10",shape=record];
  rankdir="LR";
  Node1 [label="simple::english_writer\l::do_ge_node",height=0.2,width=0.4,color="black", fillcolor="grey75", style="filled", fontcolor="black"];
  Node1 -> Node2 [color="midnightblue",fontsize="10",style="solid"];
  Node2 [label="simple::english_writer\l::processBinaryExpression",height=0.2,width=0.4,color="black", fillcolor="white", style="filled",URL="$classsimple_1_1english__writer.html#a002e947de0a1659a290e6c617c65ad82"];
  Node2 -> Node3 [color="midnightblue",fontsize="10",style="solid"];
  Node3 [label="basic_ast_visitor::os",height=0.2,width=0.4,color="black", fillcolor="white", style="filled",URL="$classbasic__ast__visitor.html#ab81ab147fe687470c3e8f9ebfd2ca6f9"];
}
