digraph "simple::while_node"
{
  edge [fontname="Helvetica",fontsize="10",labelfontname="Helvetica",labelfontsize="10"];
  node [fontname="Helvetica",fontsize="10",shape=record];
  Node1 [label="{simple::while_node\n|- _condition\l- _block\l|+ while_node()\l+ condition()\l+ block()\l+ accept()\l}",height=0.2,width=0.4,color="black", fillcolor="grey75", style="filled", fontcolor="black"];
  Node2 -> Node1 [dir="back",color="midnightblue",fontsize="10",style="solid",arrowtail="onormal"];
  Node2 [label="{basic_node\n||}",height=0.2,width=0.4,color="grey75", fillcolor="white", style="filled"];
}
