digraph "basic_ast_visitor::do_identifier_node"
{
  edge [fontname="Helvetica",fontsize="10",labelfontname="Helvetica",labelfontsize="10"];
  node [fontname="Helvetica",fontsize="10",shape=record];
  rankdir="LR";
  Node1 [label="basic_ast_visitor::\ldo_identifier_node",height=0.2,width=0.4,color="black", fillcolor="grey75", style="filled", fontcolor="black"];
  Node1 -> Node2 [color="midnightblue",fontsize="10",style="solid"];
  Node2 [label="basic_ast_visitor::\ldo_add_node",height=0.2,width=0.4,color="black", fillcolor="white", style="filled",URL="$classbasic__ast__visitor.html#acaf61e947882fe332740272a88d40dff"];
  Node1 -> Node3 [color="midnightblue",fontsize="10",style="solid"];
  Node3 [label="basic_ast_visitor::\ldo_assignment_node",height=0.2,width=0.4,color="black", fillcolor="white", style="filled",URL="$classbasic__ast__visitor.html#a16f3159234623b6dd624c87cd45cf3d4"];
  Node1 -> Node4 [color="midnightblue",fontsize="10",style="solid"];
  Node4 [label="basic_ast_visitor::\ldo_div_node",height=0.2,width=0.4,color="black", fillcolor="white", style="filled",URL="$classbasic__ast__visitor.html#abea4863f6219fb67e1841620d08a882d"];
  Node1 -> Node5 [color="midnightblue",fontsize="10",style="solid"];
  Node5 [label="basic_ast_visitor::\ldo_eq_node",height=0.2,width=0.4,color="black", fillcolor="white", style="filled",URL="$classbasic__ast__visitor.html#a28c9f578ae839fe555cd92615e8c2acb"];
  Node1 -> Node6 [color="midnightblue",fontsize="10",style="solid"];
  Node6 [label="basic_ast_visitor::\ldo_evaluation_node",height=0.2,width=0.4,color="black", fillcolor="white", style="filled",URL="$classbasic__ast__visitor.html#ae4082d94dcad55ea50ba75042fea87ea"];
  Node1 -> Node7 [color="midnightblue",fontsize="10",style="solid"];
  Node7 [label="basic_ast_visitor::\ldo_ge_node",height=0.2,width=0.4,color="black", fillcolor="white", style="filled",URL="$classbasic__ast__visitor.html#a50cb4319b9ba03376fe567a92a0fb1ab"];
  Node1 -> Node8 [color="midnightblue",fontsize="10",style="solid"];
  Node8 [label="basic_ast_visitor::\ldo_gt_node",height=0.2,width=0.4,color="black", fillcolor="white", style="filled",URL="$classbasic__ast__visitor.html#a35d5c3dd16c3eec5797d67324608fd68"];
  Node1 -> Node9 [color="midnightblue",fontsize="10",style="solid"];
  Node9 [label="basic_ast_visitor::\ldo_if_else_node",height=0.2,width=0.4,color="black", fillcolor="white", style="filled",URL="$classbasic__ast__visitor.html#a4daf67d9fe720cf51f7b8ae84515b379"];
  Node1 -> Node10 [color="midnightblue",fontsize="10",style="solid"];
  Node10 [label="basic_ast_visitor::\ldo_if_node",height=0.2,width=0.4,color="black", fillcolor="white", style="filled",URL="$classbasic__ast__visitor.html#a36ecfef99ad34c4cefc71ffffa72faa2"];
  Node1 -> Node11 [color="midnightblue",fontsize="10",style="solid"];
  Node11 [label="basic_ast_visitor::\ldo_le_node",height=0.2,width=0.4,color="black", fillcolor="white", style="filled",URL="$classbasic__ast__visitor.html#a51d63c3b08b977f75ecef38dcd10f919"];
  Node1 -> Node12 [color="midnightblue",fontsize="10",style="solid"];
  Node12 [label="basic_ast_visitor::\ldo_lt_node",height=0.2,width=0.4,color="black", fillcolor="white", style="filled",URL="$classbasic__ast__visitor.html#a1167e428d37a80936ebb6c99638c70ca"];
  Node1 -> Node13 [color="midnightblue",fontsize="10",style="solid"];
  Node13 [label="basic_ast_visitor::\ldo_lvalue_node",height=0.2,width=0.4,color="black", fillcolor="white", style="filled",URL="$classbasic__ast__visitor.html#ad75c60b05a05b69760a1e0e19f5f0e75"];
  Node1 -> Node14 [color="midnightblue",fontsize="10",style="solid"];
  Node14 [label="basic_ast_visitor::\ldo_mod_node",height=0.2,width=0.4,color="black", fillcolor="white", style="filled",URL="$classbasic__ast__visitor.html#ad7ad0bac59f46e8a8eae65506973f3bb"];
  Node1 -> Node15 [color="midnightblue",fontsize="10",style="solid"];
  Node15 [label="basic_ast_visitor::\ldo_mul_node",height=0.2,width=0.4,color="black", fillcolor="white", style="filled",URL="$classbasic__ast__visitor.html#a7806c518f8fb3f9349b3b56a0ec266be"];
  Node1 -> Node16 [color="midnightblue",fontsize="10",style="solid"];
  Node16 [label="basic_ast_visitor::\ldo_ne_node",height=0.2,width=0.4,color="black", fillcolor="white", style="filled",URL="$classbasic__ast__visitor.html#adef6c9af687ca4c1a84d4e6b2f89f43c"];
  Node1 -> Node17 [color="midnightblue",fontsize="10",style="solid"];
  Node17 [label="basic_ast_visitor::\ldo_neg_node",height=0.2,width=0.4,color="black", fillcolor="white", style="filled",URL="$classbasic__ast__visitor.html#a0f8aab79e4982b9165c4f2073d0a0791"];
  Node1 -> Node18 [color="midnightblue",fontsize="10",style="solid"];
  Node18 [label="basic_ast_visitor::\ldo_print_node",height=0.2,width=0.4,color="black", fillcolor="white", style="filled",URL="$classbasic__ast__visitor.html#a722ddc53751076269b581822c03a1cc2"];
  Node1 -> Node19 [color="midnightblue",fontsize="10",style="solid"];
  Node19 [label="basic_ast_visitor::\ldo_program_node",height=0.2,width=0.4,color="black", fillcolor="white", style="filled",URL="$classbasic__ast__visitor.html#a21a0fe05da49761d69eb4b4ac72a5a8f"];
  Node1 -> Node20 [color="midnightblue",fontsize="10",style="solid"];
  Node20 [label="basic_ast_visitor::\ldo_read_node",height=0.2,width=0.4,color="black", fillcolor="white", style="filled",URL="$classbasic__ast__visitor.html#afba0c48b53352fdb577f70f759dee0b0"];
  Node1 -> Node21 [color="midnightblue",fontsize="10",style="solid"];
  Node21 [label="basic_ast_visitor::\ldo_rvalue_node",height=0.2,width=0.4,color="black", fillcolor="white", style="filled",URL="$classbasic__ast__visitor.html#ae24dcf0822326d340f68fa02c1f151b6"];
  Node1 -> Node22 [color="midnightblue",fontsize="10",style="solid"];
  Node22 [label="basic_ast_visitor::\ldo_sub_node",height=0.2,width=0.4,color="black", fillcolor="white", style="filled",URL="$classbasic__ast__visitor.html#ac22ba53376b0df09fcbce78030568d1b"];
  Node1 -> Node23 [color="midnightblue",fontsize="10",style="solid"];
  Node23 [label="basic_ast_visitor::\ldo_while_node",height=0.2,width=0.4,color="black", fillcolor="white", style="filled",URL="$classbasic__ast__visitor.html#a3f004de25579473260d841e49f8b50e9"];
}
