digraph "simple::interpreter::do_if_else_node"
{
  edge [fontname="Helvetica",fontsize="10",labelfontname="Helvetica",labelfontsize="10"];
  node [fontname="Helvetica",fontsize="10",shape=record];
  rankdir="LR";
  Node1 [label="simple::interpreter\l::do_if_else_node",height=0.2,width=0.4,color="black", fillcolor="grey75", style="filled", fontcolor="black"];
  Node1 -> Node2 [color="midnightblue",fontsize="10",style="solid"];
  Node2 [label="simple::if_else_node\l::condition",height=0.2,width=0.4,color="black", fillcolor="white", style="filled",URL="$classsimple_1_1if__else__node.html#a0079e9c582acbe4575734ec7341b7977"];
  Node1 -> Node3 [color="midnightblue",fontsize="10",style="solid"];
  Node3 [label="simple::if_else_node\l::elseblock",height=0.2,width=0.4,color="black", fillcolor="white", style="filled",URL="$classsimple_1_1if__else__node.html#a51c14ec9c3d19e5e45a8bdeaa999df72"];
  Node1 -> Node4 [color="midnightblue",fontsize="10",style="solid"];
  Node4 [label="simple::if_else_node\l::thenblock",height=0.2,width=0.4,color="black", fillcolor="white", style="filled",URL="$classsimple_1_1if__else__node.html#a5f440f43ff524610b4ad6a576fd1a18a"];
}
