digraph "targets/postfix_target.cpp"
{
  edge [fontname="Helvetica",fontsize="10",labelfontname="Helvetica",labelfontsize="10"];
  node [fontname="Helvetica",fontsize="10",shape=record];
  Node1 [label="targets/postfix_target.cpp",height=0.2,width=0.4,color="black", fillcolor="grey75", style="filled", fontcolor="black"];
  Node1 -> Node2 [color="midnightblue",fontsize="10",style="solid"];
  Node2 [label="targets/postfix_target.h",height=0.2,width=0.4,color="black", fillcolor="white", style="filled",URL="$postfix__target_8h.html"];
  Node2 -> Node3 [color="midnightblue",fontsize="10",style="solid"];
  Node3 [label="cdk/basic_target.h",height=0.2,width=0.4,color="grey75", fillcolor="white", style="filled"];
  Node2 -> Node4 [color="midnightblue",fontsize="10",style="solid"];
  Node4 [label="cdk/symbol_table.h",height=0.2,width=0.4,color="grey75", fillcolor="white", style="filled"];
  Node2 -> Node5 [color="midnightblue",fontsize="10",style="solid"];
  Node5 [label="cdk/ast/basic_node.h",height=0.2,width=0.4,color="grey75", fillcolor="white", style="filled"];
  Node2 -> Node6 [color="midnightblue",fontsize="10",style="solid"];
  Node6 [label="cdk/compiler.h",height=0.2,width=0.4,color="grey75", fillcolor="white", style="filled"];
  Node2 -> Node7 [color="midnightblue",fontsize="10",style="solid"];
  Node7 [label="cdk/emitters/postfix\l_ix86_emitter.h",height=0.2,width=0.4,color="grey75", fillcolor="white", style="filled"];
  Node2 -> Node8 [color="midnightblue",fontsize="10",style="solid"];
  Node8 [label="targets/postfix_writer.h",height=0.2,width=0.4,color="black", fillcolor="white", style="filled",URL="$postfix__writer_8h.html"];
  Node8 -> Node9 [color="midnightblue",fontsize="10",style="solid"];
  Node9 [label="string",height=0.2,width=0.4,color="grey75", fillcolor="white", style="filled"];
  Node8 -> Node10 [color="midnightblue",fontsize="10",style="solid"];
  Node10 [label="iostream",height=0.2,width=0.4,color="grey75", fillcolor="white", style="filled"];
  Node8 -> Node4 [color="midnightblue",fontsize="10",style="solid"];
  Node8 -> Node11 [color="midnightblue",fontsize="10",style="solid"];
  Node11 [label="cdk/emitters/basic\l_postfix_emitter.h",height=0.2,width=0.4,color="grey75", fillcolor="white", style="filled"];
  Node8 -> Node12 [color="midnightblue",fontsize="10",style="solid"];
  Node12 [label="targets/basic_ast_visitor.h",height=0.2,width=0.4,color="black", fillcolor="white", style="filled",URL="$basic__ast__visitor_8h.html"];
  Node12 -> Node9 [color="midnightblue",fontsize="10",style="solid"];
  Node12 -> Node13 [color="midnightblue",fontsize="10",style="solid"];
  Node13 [label="memory",height=0.2,width=0.4,color="grey75", fillcolor="white", style="filled"];
  Node12 -> Node10 [color="midnightblue",fontsize="10",style="solid"];
  Node12 -> Node6 [color="midnightblue",fontsize="10",style="solid"];
  Node12 -> Node14 [color="midnightblue",fontsize="10",style="solid"];
  Node14 [label="ast/all.h",height=0.2,width=0.4,color="black", fillcolor="white", style="filled",URL="$all_8h.html"];
  Node14 -> Node5 [color="midnightblue",fontsize="10",style="solid"];
  Node14 -> Node15 [color="midnightblue",fontsize="10",style="solid"];
  Node15 [label="cdk/ast/data_node.h",height=0.2,width=0.4,color="grey75", fillcolor="white", style="filled"];
  Node14 -> Node16 [color="midnightblue",fontsize="10",style="solid"];
  Node16 [label="cdk/ast/nil_node.h",height=0.2,width=0.4,color="grey75", fillcolor="white", style="filled"];
  Node14 -> Node17 [color="midnightblue",fontsize="10",style="solid"];
  Node17 [label="cdk/ast/composite_node.h",height=0.2,width=0.4,color="grey75", fillcolor="white", style="filled"];
  Node14 -> Node18 [color="midnightblue",fontsize="10",style="solid"];
  Node18 [label="cdk/ast/sequence_node.h",height=0.2,width=0.4,color="grey75", fillcolor="white", style="filled"];
  Node14 -> Node19 [color="midnightblue",fontsize="10",style="solid"];
  Node19 [label="cdk/ast/integer_node.h",height=0.2,width=0.4,color="grey75", fillcolor="white", style="filled"];
  Node14 -> Node20 [color="midnightblue",fontsize="10",style="solid"];
  Node20 [label="cdk/ast/double_node.h",height=0.2,width=0.4,color="grey75", fillcolor="white", style="filled"];
  Node14 -> Node21 [color="midnightblue",fontsize="10",style="solid"];
  Node21 [label="cdk/ast/string_node.h",height=0.2,width=0.4,color="grey75", fillcolor="white", style="filled"];
  Node14 -> Node22 [color="midnightblue",fontsize="10",style="solid"];
  Node22 [label="cdk/ast/identifier\l_node.h",height=0.2,width=0.4,color="grey75", fillcolor="white", style="filled"];
  Node14 -> Node23 [color="midnightblue",fontsize="10",style="solid"];
  Node23 [label="cdk/ast/neg_node.h",height=0.2,width=0.4,color="grey75", fillcolor="white", style="filled"];
  Node14 -> Node24 [color="midnightblue",fontsize="10",style="solid"];
  Node24 [label="cdk/ast/add_node.h",height=0.2,width=0.4,color="grey75", fillcolor="white", style="filled"];
  Node14 -> Node25 [color="midnightblue",fontsize="10",style="solid"];
  Node25 [label="cdk/ast/sub_node.h",height=0.2,width=0.4,color="grey75", fillcolor="white", style="filled"];
  Node14 -> Node26 [color="midnightblue",fontsize="10",style="solid"];
  Node26 [label="cdk/ast/mul_node.h",height=0.2,width=0.4,color="grey75", fillcolor="white", style="filled"];
  Node14 -> Node27 [color="midnightblue",fontsize="10",style="solid"];
  Node27 [label="cdk/ast/div_node.h",height=0.2,width=0.4,color="grey75", fillcolor="white", style="filled"];
  Node14 -> Node28 [color="midnightblue",fontsize="10",style="solid"];
  Node28 [label="cdk/ast/mod_node.h",height=0.2,width=0.4,color="grey75", fillcolor="white", style="filled"];
  Node14 -> Node29 [color="midnightblue",fontsize="10",style="solid"];
  Node29 [label="cdk/ast/lt_node.h",height=0.2,width=0.4,color="grey75", fillcolor="white", style="filled"];
  Node14 -> Node30 [color="midnightblue",fontsize="10",style="solid"];
  Node30 [label="cdk/ast/gt_node.h",height=0.2,width=0.4,color="grey75", fillcolor="white", style="filled"];
  Node14 -> Node31 [color="midnightblue",fontsize="10",style="solid"];
  Node31 [label="cdk/ast/ge_node.h",height=0.2,width=0.4,color="grey75", fillcolor="white", style="filled"];
  Node14 -> Node32 [color="midnightblue",fontsize="10",style="solid"];
  Node32 [label="cdk/ast/le_node.h",height=0.2,width=0.4,color="grey75", fillcolor="white", style="filled"];
  Node14 -> Node33 [color="midnightblue",fontsize="10",style="solid"];
  Node33 [label="cdk/ast/ne_node.h",height=0.2,width=0.4,color="grey75", fillcolor="white", style="filled"];
  Node14 -> Node34 [color="midnightblue",fontsize="10",style="solid"];
  Node34 [label="cdk/ast/eq_node.h",height=0.2,width=0.4,color="grey75", fillcolor="white", style="filled"];
  Node14 -> Node35 [color="midnightblue",fontsize="10",style="solid"];
  Node35 [label="ast/while_node.h",height=0.2,width=0.4,color="black", fillcolor="white", style="filled",URL="$while__node_8h.html"];
  Node35 -> Node36 [color="midnightblue",fontsize="10",style="solid"];
  Node36 [label="cdk/ast/expression\l_node.h",height=0.2,width=0.4,color="grey75", fillcolor="white", style="filled"];
  Node14 -> Node37 [color="midnightblue",fontsize="10",style="solid"];
  Node37 [label="ast/program_node.h",height=0.2,width=0.4,color="black", fillcolor="white", style="filled",URL="$program__node_8h.html"];
  Node37 -> Node5 [color="midnightblue",fontsize="10",style="solid"];
  Node14 -> Node38 [color="midnightblue",fontsize="10",style="solid"];
  Node38 [label="ast/assignment_node.h",height=0.2,width=0.4,color="black", fillcolor="white", style="filled",URL="$assignment__node_8h.html"];
  Node38 -> Node39 [color="midnightblue",fontsize="10",style="solid"];
  Node39 [label="ast/lvalue_node.h",height=0.2,width=0.4,color="black", fillcolor="white", style="filled",URL="$lvalue__node_8h.html"];
  Node39 -> Node40 [color="midnightblue",fontsize="10",style="solid"];
  Node40 [label="cdk/ast/simple_value\l_node.h",height=0.2,width=0.4,color="grey75", fillcolor="white", style="filled"];
  Node39 -> Node9 [color="midnightblue",fontsize="10",style="solid"];
  Node14 -> Node41 [color="midnightblue",fontsize="10",style="solid"];
  Node41 [label="ast/print_node.h",height=0.2,width=0.4,color="black", fillcolor="white", style="filled",URL="$print__node_8h.html"];
  Node41 -> Node36 [color="midnightblue",fontsize="10",style="solid"];
  Node14 -> Node39 [color="midnightblue",fontsize="10",style="solid"];
  Node14 -> Node42 [color="midnightblue",fontsize="10",style="solid"];
  Node42 [label="ast/rvalue_node.h",height=0.2,width=0.4,color="black", fillcolor="white", style="filled",URL="$rvalue__node_8h.html"];
  Node42 -> Node36 [color="midnightblue",fontsize="10",style="solid"];
  Node14 -> Node43 [color="midnightblue",fontsize="10",style="solid"];
  Node43 [label="ast/read_node.h",height=0.2,width=0.4,color="black", fillcolor="white", style="filled",URL="$read__node_8h.html"];
  Node43 -> Node39 [color="midnightblue",fontsize="10",style="solid"];
  Node14 -> Node44 [color="midnightblue",fontsize="10",style="solid"];
  Node44 [label="ast/evaluation_node.h",height=0.2,width=0.4,color="black", fillcolor="white", style="filled",URL="$evaluation__node_8h.html"];
  Node44 -> Node36 [color="midnightblue",fontsize="10",style="solid"];
  Node14 -> Node45 [color="midnightblue",fontsize="10",style="solid"];
  Node45 [label="ast/if_else_node.h",height=0.2,width=0.4,color="black", fillcolor="white", style="filled",URL="$if__else__node_8h.html"];
  Node45 -> Node36 [color="midnightblue",fontsize="10",style="solid"];
  Node14 -> Node46 [color="midnightblue",fontsize="10",style="solid"];
  Node46 [label="ast/if_node.h",height=0.2,width=0.4,color="black", fillcolor="white", style="filled",URL="$if__node_8h.html"];
  Node46 -> Node36 [color="midnightblue",fontsize="10",style="solid"];
  Node8 -> Node47 [color="midnightblue",fontsize="10",style="solid"];
  Node47 [label="targets/symbol.h",height=0.2,width=0.4,color="black", fillcolor="white", style="filled",URL="$symbol_8h.html"];
  Node47 -> Node9 [color="midnightblue",fontsize="10",style="solid"];
  Node47 -> Node48 [color="midnightblue",fontsize="10",style="solid"];
  Node48 [label="cdk/basic_type.h",height=0.2,width=0.4,color="grey75", fillcolor="white", style="filled"];
  Node2 -> Node47 [color="midnightblue",fontsize="10",style="solid"];
}
