digraph "cdk::identifier_node"
{
  edge [fontname="Helvetica",fontsize="10",labelfontname="Helvetica",labelfontsize="10"];
  node [fontname="Helvetica",fontsize="10",shape=record];
  Node1 [label="{cdk::identifier_node\n||+ identifier_node()\l+ identifier_node()\l+ identifier_node()\l+ accept()\l}",height=0.2,width=0.4,color="black", fillcolor="grey75", style="filled", fontcolor="black"];
  Node2 -> Node1 [dir="back",color="midnightblue",fontsize="10",style="solid",arrowtail="onormal",fontname="Helvetica"];
  Node2 [label="{cdk::simple_value_node\l\< std::string \>\n||+ value()\l# simple_value_node()\l}",height=0.2,width=0.4,color="black", fillcolor="white", style="filled",URL="$classcdk_1_1simple__value__node.html"];
  Node3 -> Node2 [dir="back",color="midnightblue",fontsize="10",style="solid",arrowtail="onormal",fontname="Helvetica"];
  Node3 [label="{cdk::expression_node\n|# _type\l|+ expression_node()\l+ type()\l+ type()\l}",height=0.2,width=0.4,color="black", fillcolor="white", style="filled",URL="$classcdk_1_1expression__node.html"];
  Node4 -> Node3 [dir="back",color="midnightblue",fontsize="10",style="solid",arrowtail="onormal",fontname="Helvetica"];
  Node4 [label="{cdk::basic_node\n||+ ~basic_node()\l+ lineno()\l+ name()\l+ accept()\l# basic_node()\l}",height=0.2,width=0.4,color="black", fillcolor="white", style="filled",URL="$classcdk_1_1basic__node.html"];
  Node5 -> Node2 [dir="back",color="orange",fontsize="10",style="solid",label=" \< std::string \>" ,fontname="Helvetica"];
  Node5 [label="{cdk::simple_value_node\l\< StoredType \>\n||+ value()\l# simple_value_node()\l}",height=0.2,width=0.4,color="black", fillcolor="white", style="filled",URL="$classcdk_1_1simple__value__node.html"];
  Node3 -> Node5 [dir="back",color="midnightblue",fontsize="10",style="solid",arrowtail="onormal",fontname="Helvetica"];
}
