digraph "cdk::postfix_ix86_emitter"
{
  edge [fontname="Helvetica",fontsize="10",labelfontname="Helvetica",labelfontsize="10"];
  node [fontname="Helvetica",fontsize="10",shape=record];
  Node1 [label="{cdk::postfix_ix86_emitter\n||+ postfix_ix86_emitter()\l+ NOP()\l+ INT()\l+ ADD()\l+ SUB()\l+ MUL()\l+ DIV()\l+ MOD()\l+ NEG()\l+ INCR()\land 97 more...\l}",height=0.2,width=0.4,color="black", fillcolor="grey75", style="filled", fontcolor="black"];
  Node2 -> Node1 [dir="back",color="midnightblue",fontsize="10",style="solid",arrowtail="onormal",fontname="Helvetica"];
  Node2 [label="{cdk::basic_postfix\l_emitter\n||+ ~basic_postfix_emitter()\l+ NOP()\l+ INT()\l+ INCR()\l+ DECR()\l+ DUP()\l+ DDUP()\l+ SWAP()\l+ SP()\l+ NIL()\land 100 more...\l# basic_postfix_emitter()\l# os()\l# debug()\l}",height=0.2,width=0.4,color="black", fillcolor="white", style="filled",URL="$classcdk_1_1basic__postfix__emitter.html"];
}
